<!doctype html>
<html lang="en">
<head>
    <!-- Required meta tags -->
    <meta charset="utf-8">
    <meta name="viewport" content="width=device-width, initial-scale=1, shrink-to-fit=no">

    <!-- Bootstrap CSS -->
    <link rel="stylesheet" href="https://stackpath.bootstrapcdn.com/bootstrap/4.4.1/css/bootstrap.min.css" integrity="sha384-Vkoo8x4CGsO3+Hhxv8T/Q5PaXtkKtu6ug5TOeNV6gBiFeWPGFN9MuhOf23Q9Ifjh" crossorigin="anonymous">

    <title>Contact List</title>
</head>
<body>


<div class="container">
    <form action="store.txt" method="post">
        <div class="row">
            <div class="col-md-6">
                <h2>Contact List</h2>
                <div class="form-row">
                    <div class="form-group col-md-6">
                        <label for="name">Name</label>
                        <input type="text" class="form-control" name="name" id="name" placeholder="Name">
                    </div>
                    <div class="form-group col-md-6">
                        <label for="email">Email</label>
                        <input type="email" class="form-control" id="email" name="email" placeholder="Email">
                    </div>
                </div>
                <div class="form-row">
                    <div class="form-group col-md-6">
                        <label for="number">Phone Number</label>
                        <input type="tel" class="form-control" id="number" name="number" placeholder="Phone Number">
                    </div>
                    <div class="form-group col-md-6">
                        <label for="address">Address</label>
                        <input type="text" class="form-control" id="address" name="address" placeholder="Address">
                    </div>
                </div>

            </div>

        </div>
        <button type="submit" class="btn btn-primary">Submit</button>
    </form>
</div>

<!-- Optional JavaScript -->
<!-- jQuery first, then Popper.js, then Bootstrap JS -->
<script src="https://code.jquery.com/jquery-3.4.1.slim.min.js" integrity="sha384-J6qa4849blE2+poT4WnyKhv5vZF5SrPo0iEjwBvKU7imGFAV0wwj1yYfoRSJoZ+n" crossorigin="anonymous"></script>
<script src="https://cdn.jsdelivr.net/npm/popper.js@1.16.0/dist/umd/popper.min.js" integrity="sha384-Q6E9RHvbIyZFJoft+2mJbHaEWldlvI9IOYy5n3zV9zzTtmI3UksdQRVvoxMfooAo" crossorigin="anonymous"></script>
<script src="https://stackpath.bootstrapcdn.com/bootstrap/4.4.1/js/bootstrap.min.js" integrity="sha384-wfSDF2E50Y2D1uUdj0O3uMBJnjuUD4Ih7YwaYd1iqfktj0Uod8GCExl3Og8ifwB6" crossorigin="anonymous"></script>
</body>
</html>